Data access
…
4. Extract the good table

# Extract second table ----
datas <- tables[[2]]

Scrap a table

  Example with the Wikipedia page Liste des communes de France les plus peuplées

5. Clean output

# Explore data ----
datas

## # A tibble: 288 × 15
##    Rang2022 CodeInsee Commune     Département  Statut Région `Population légale`
##    <chr>    <chr>     <chr>       <chr>        <chr>  <chr>  <chr>              
##  1 Rang2022 CodeInsee Commune     Département  Statut Région 2022[1]            
##  2 1        75056     Paris[d]    Paris[d]     Préfe… Île-d… 2 113 705          
##  3 2        13055     Marseille   Bouches-du-… Préfe… Prove… 877 215            
##  4 3        69123     Lyon        Métropole d… Préfe… Auver… 520 774            
##  5 4        31555     Toulouse    Haute-Garon… Préfe… Occit… 511 684            
##  6 5        06088     Nice        Alpes-Marit… Préfe… Prove… 353 701            
##  7 6        44109     Nantes      Loire-Atlan… Préfe… Pays … 325 070            
##  8 7        34172     Montpellier Hérault      Préfe… Occit… 307 101            
##  9 8        67482     Strasbourg  Bas-Rhin     Préfe… Grand… 291 709            
## 10 9        33063     Bordeaux    Gironde      Préfe… Nouve… 265 328            
## # ℹ 278 more rows
## # ℹ 8 more variables: `Population légale` <chr>, `Population légale` <chr>,
## #   `Population légale` <chr>, `Population légale` <chr>,
## #   `Population légale` <chr>, `Population légale` <chr>,
## #   `Population légale` <chr>, `Population légale` <chr>

Scrap a table

  Example with the Wikipedia page Liste des communes de France les plus peuplées

5. Clean output

# Explore data ----
datas

## # A tibble: 288 × 15
##    Rang2022 CodeInsee Commune     Département  Statut Région `Population légale`
##    <chr>    <chr>     <chr>       <chr>        <chr>  <chr>  <chr>              
##  1 Rang2022 CodeInsee Commune     Département  Statut Région 2022[1]            
##  2 1        75056     Paris[d]    Paris[d]     Préfe… Île-d… 2 113 705          
##  3 2        13055     Marseille   Bouches-du-… Préfe… Prove… 877 215            
##  4 3        69123     Lyon        Métropole d… Préfe… Auver… 520 774            
##  5 4        31555     Toulouse    Haute-Garon… Préfe… Occit… 511 684            
##  6 5        06088     Nice        Alpes-Marit… Préfe… Prove… 353 701            
##  7 6        44109     Nantes      Loire-Atlan… Préfe… Pays … 325 070            
##  8 7        34172     Montpellier Hérault      Préfe… Occit… 307 101            
##  9 8        67482     Strasbourg  Bas-Rhin     Préfe… Grand… 291 709            
## 10 9        33063     Bordeaux    Gironde      Préfe… Nouve… 265 328            
## # ℹ 278 more rows
## # ℹ 8 more variables: `Population légale` <chr>, `Population légale` <chr>,
## #   `Population légale` <chr>, `Population légale` <chr>,
## #   `Population légale` <chr>, `Population légale` <chr>,
## #   `Population légale` <chr>, `Population légale` <chr>
…
# Filter columns ----
top10 <- top10[ , c(1, 3:4, 7)]

Scrap a table

  Example with the Wikipedia page Liste des communes de France les plus peuplées

5. Clean output

# Explore data ----
datas

## # A tibble: 288 × 15
##    Rang2022 CodeInsee Commune     Département  Statut Région `Population légale`
##    <chr>    <chr>     <chr>       <chr>        <chr>  <chr>  <chr>              
##  1 Rang2022 CodeInsee Commune     Département  Statut Région 2022[1]            
##  2 1        75056     Paris[d]    Paris[d]     Préfe… Île-d… 2 113 705          
##  3 2        13055     Marseille   Bouches-du-… Préfe… Prove… 877 215            
##  4 3        69123     Lyon        Métropole d… Préfe… Auver… 520 774            
##  5 4        31555     Toulouse    Haute-Garon… Préfe… Occit… 511 684            
##  6 5        06088     Nice        Alpes-Marit… Préfe… Prove… 353 701            
##  7 6        44109     Nantes      Loire-Atlan… Préfe… Pays … 325 070            
##  8 7        34172     Montpellier Hérault      Préfe… Occit… 307 101            
##  9 8        67482     Strasbourg  Bas-Rhin     Préfe… Grand… 291 709            
## 10 9        33063     Bordeaux    Gironde      Préfe… Nouve… 265 328            
## # ℹ 278 more rows
## # ℹ 8 more variables: `Population légale` <chr>, `Population légale` <chr>,
## #   `Population légale` <chr>, `Population légale` <chr>,
## #   `Population légale` <chr>, `Population légale` <chr>,
## #   `Population légale` <chr>, `Population légale` <chr>
…
Scrap a table

  Example with the Wikipedia page Liste des communes de France les plus peuplées

5. Clean output

# Explore data ----
datas

## # A tibble: 288 × 15
##    Rang2022 CodeInsee Commune     Département  Statut Région `Population légale`
##    <chr>    <chr>     <chr>       <chr>        <chr>  <chr>  <chr>              
##  1 Rang2022 CodeInsee Commune     Département  Statut Région 2022[1]            
##  2 1        75056     Paris[d]    Paris[d]     Préfe… Île-d… 2 113 705          
##  3 2        13055     Marseille   Bouches-du-… Préfe… Prove… 877 215            
##  4 3        69123     Lyon        Métropole d… Préfe… Auver… 520 774            
##  5 4        31555     Toulouse    Haute-Garon… Préfe… Occit… 511 684            
##  6 5        06088     Nice        Alpes-Marit… Préfe… Prove… 353 701            
##  7 6        44109     Nantes      Loire-Atlan… Préfe… Pays … 325 070            
##  8 7        34172     Montpellier Hérault      Préfe… Occit… 307 101            
##  9 8        67482     Strasbourg  Bas-Rhin     Préfe… Grand… 291 709            
## 10 9        33063     Bordeaux    Gironde      Préfe… Nouve… 265 328            
## # ℹ 278 more rows
## # ℹ 8 more variables: `Population légale` <chr>, `Population légale` <chr>,
## #   `Population légale` <chr>, `Population légale` <chr>,
## #   `Population légale` <chr>, `Population légale` <chr>,
## #   `Population légale` <chr>, `Population légale` <chr>
…
